<?xml version="1.0" standalone="no"?>
<!DOCTYPE svg PUBLIC "-//W3C//DTD SVG 20010904//EN"
 "http://www.w3.org/TR/2001/REC-SVG-20010904/DTD/svg10.dtd">
<svg version="1.0" xmlns="http://www.w3.org/2000/svg"
 width="500.000000pt" height="500.000000pt" viewBox="0 0 500.000000 500.000000"
 preserveAspectRatio="xMidYMid meet">
<metadata>
Created by potrace 1.15, written by Peter Selinger 2001-2017
</metadata>
<g transform="translate(0.000000,500.000000) scale(0.100000,-0.100000)"
fill="#000000" stroke="none">
<path d="M640 2500 l0 -1070 243 2 242 3 3 83 3 82 -141 0 -140 0 0 900 0 900
140 0 141 0 -3 83 -3 82 -242 3 -243 2 0 -1070z"/>
<path d="M3880 3485 l0 -85 140 0 140 0 0 -900 0 -900 -140 0 -140 0 0 -85 0
-85 245 0 245 0 0 1070 0 1070 -245 0 -245 0 0 -85z"/>
<path d="M1620 1895 l0 -145 125 0 125 0 0 145 0 145 -125 0 -125 0 0 -145z"/>
<path d="M2380 1895 l0 -145 125 0 125 0 0 145 0 145 -125 0 -125 0 0 -145z"/>
<path d="M3140 1895 l0 -145 125 0 125 0 0 145 0 145 -125 0 -125 0 0 -145z"/>
</g>
</svg>
